<?xml version="1.0" encoding="UTF-8" standalone="no"?>
<svg
   xmlns:dc="http://purl.org/dc/elements/1.1/"
   xmlns:cc="http://creativecommons.org/ns#"
   xmlns:rdf="http://www.w3.org/1999/02/22-rdf-syntax-ns#"
   xmlns:svg="http://www.w3.org/2000/svg"
   xmlns="http://www.w3.org/2000/svg"
   xmlns:sodipodi="http://sodipodi.sourceforge.net/DTD/sodipodi-0.dtd"
   xmlns:inkscape="http://www.inkscape.org/namespaces/inkscape"
   width="210mm"
   height="210mm"
   viewBox="0 0 210 210"
   version="1.1"
   id="svg8"
   sodipodi:docname="brightness.svg"
   inkscape:export-filename="/home/are/source/laptop_tools/brightness.png"
   inkscape:export-xdpi="30.963808"
   inkscape:export-ydpi="30.963808"
   inkscape:version="1.0rc1 (09960d6f05, 2020-04-09)">
  <defs
     id="defs2" />
  <sodipodi:namedview
     id="base"
     pagecolor="#ffffff"
     bordercolor="#666666"
     borderopacity="1.0"
     inkscape:pageopacity="0"
     inkscape:pageshadow="2"
     inkscape:zoom="0.65019858"
     inkscape:cx="786.81337"
     inkscape:cy="534.85056"
     inkscape:document-units="mm"
     inkscape:current-layer="layer1"
     inkscape:document-rotation="0"
     showgrid="false"
     inkscape:snap-page="true"
     inkscape:snap-center="true"
     inkscape:snap-object-midpoints="true"
     showguides="true"
     inkscape:guide-bbox="true"
     inkscape:window-width="1916"
     inkscape:window-height="1031"
     inkscape:window-x="0"
     inkscape:window-y="0"
     inkscape:window-maximized="1"
     inkscape:snap-others="true">
    <sodipodi:guide
       position="210,210"
       orientation="0.70710678,-0.70710678"
       id="guide833" />
    <sodipodi:guide
       position="0,210"
       orientation="0.70710678,0.70710678"
       id="guide835"
       inkscape:label=""
       inkscape:locked="false"
       inkscape:color="rgb(0,0,255)" />
    <sodipodi:guide
       position="105,105"
       orientation="1,0"
       id="guide907" />
    <sodipodi:guide
       position="105,105"
       orientation="0,-1"
       id="guide927" />
    <sodipodi:guide
       position="158.71436,51.28564"
       orientation="0,-1"
       id="guide935" />
    <sodipodi:guide
       id="guide1431"
       orientation="0,-1"
       position="82.619015,82.619015" />
    <sodipodi:guide
       id="guide1433"
       orientation="1,0"
       position="82.619015,82.619015" />
    <sodipodi:guide
       id="guide1435"
       orientation="0,-1"
       position="182.7102,115.18602" />
    <sodipodi:guide
       id="guide1437"
       orientation="1,0"
       position="127.38099,82.619015" />
    <sodipodi:guide
       id="guide1439"
       orientation="0,-1"
       position="105,71.237904" />
  </sodipodi:namedview>
  <metadata
     id="metadata5">
    <rdf:RDF>
      <cc:Work
         rdf:about="">
        <dc:format>image/svg+xml</dc:format>
        <dc:type
           rdf:resource="http://purl.org/dc/dcmitype/StillImage" />
        <dc:title></dc:title>
      </cc:Work>
    </rdf:RDF>
  </metadata>
  <g
     inkscape:label="Layer 1"
     inkscape:groupmode="layer"
     id="layer1">
    <rect
       style="fill:#000000;fill-opacity:0.645584;stroke:none;stroke-width:79.6588;stroke-linecap:round;stroke-linejoin:round"
       id="rect839"
       width="183.9559"
       height="184.90947"
       x="13.022052"
       y="12.545262"
       rx="28.432573"
       ry="28.69775" />
    <g
       transform="matrix(0.83436768,0,0,0.83436768,17.391396,16.280903)"
       id="g1495">
      <circle
         style="fill:none;stroke:#ffffff;stroke-width:10;stroke-linecap:square;stroke-linejoin:round"
         id="path1429"
         cx="105"
         cy="81.485458"
         r="35" />
      <circle
         cy="81.485458"
         cx="105"
         id="path1429-6"
         style="fill:none;stroke:#ffffff;stroke-width:9;stroke-linecap:square;stroke-linejoin:round;stroke-miterlimit:4;stroke-dasharray:9, 36;stroke-dashoffset:0"
         r="50" />
    </g>
  </g>
</svg>
